[{
    "title" : "Van Dale pocketwoordenboek duits-nederlands",
    "author" : "Van Dale",
    "price" : 10.99,
    "isbn" : "9789460770579"
},
{
    "title" : "Het groene boekje",
    "author" : "SDU",
    "price" : 27.95,
    "isbn" : "9789012105903"
}]